…
    ## Warning: There was 1 warning in `mutate()`.
    ## ℹ In argument: `date = as_date(date, format = "%m/%d/%Y %I:%M:%S %p", tz =
    ##   Sys.timezone())`.
    ## Caused by warning:
    ## ! `tz` argument is ignored by `as_date()`

``` r
daily_sleep1
```

    ## # A tibble: 410 × 5
    ##         id date       total_sleep_records total_minutes_asleep total_time_in_bed
    ##      <dbl> <date>                   <dbl>                <dbl>             <dbl>
    ##  1  1.50e9 2016-04-12                   1                  327               346
    ##  2  1.50e9 2016-04-13                   2                  384               407
    ##  3  1.50e9 2016-04-15                   1                  412               442
    ##  4  1.50e9 2016-04-16                   2                  340               367
    ##  5  1.50e9 2016-04-17                   1                  700               712
    ##  6  1.50e9 2016-04-19                   1                  304               320
    ##  7  1.50e9 2016-04-20                   1                  360               377
    ##  8  1.50e9 2016-04-21                   1                  325               364
    ##  9  1.50e9 2016-04-23                   1                  361               384
    ## 10  1.50e9 2016-04-24                   1                  430               449
    ## # ℹ 400 more rows
…
Now, we have modified the hourly_steps data, let’s find the average
steps by hours and then visualize…

``` r
hourly_steps_modified %>% 
  group_by(time) %>% 
  summarize(average_hourly_steps = round(mean(step_total),2))
```

    ## # A tibble: 24 × 2
    ##    time     average_hourly_steps
    ##    <chr>                   <dbl>
    ##  1 00:00:00                42.2 
    ##  2 01:00:00                23.1 
    ##  3 02:00:00                17.1 
    ##  4 03:00:00                 6.43
    ##  5 04:00:00                12.7 
    ##  6 05:00:00                43.9 
    ##  7 06:00:00               179.  
    ##  8 07:00:00               306.  
    ##  9 08:00:00               428.  
    ## 10 09:00:00               433.  
    ## # ℹ 14 more rows
…
Let’s create our categories.

``` r
daily_use <- daily_use %>% 
 mutate(usage = case_when(
     sum_of_days_used >= 21 & sum_of_days_used <=31 ~ "high use",
     sum_of_days_used >= 10 & sum_of_days_used <=20 ~ "moderate use",
     sum_of_days_used >= 1 & sum_of_days_used <=9 ~ "low use"
   )
 )
daily_use
```

    ## # A tibble: 24 × 3
    ##            id sum_of_days_used usage       
    ##         <dbl>            <int> <chr>       
    ##  1 1503960366               25 high use    
    ##  2 1644430081                4 low use     
    ##  3 1844505072                3 low use     
    ##  4 1927972279                5 low use     
    ##  5 2026352035               28 high use    
    ##  6 2320127002                1 low use     
    ##  7 2347167796               15 moderate use
    ##  8 3977333714               28 high use    
    ##  9 4020332650                8 low use     
    ## 10 4319703577               26 high use    
    ## # ℹ 14 more rows
…
